{
  "restApiRoot": "/api",
  "host": "0.0.0.0",
  "port": 51693,
  "remoting": {
    "context": false,
    "rest": {
      "normalizeHttpPath": false,
      "xml": false
    },
    "json": {
      "strict": false,
      "limit": "100kb"
    },
    "urlencoded": {
      "extended": true,
      "limit": "100kb"
    },
    "cors": false,
    "errorHandler": {
      "disableStackTrace": false
    }
  },
  "legacyExplorer": false
}
